15
sym_fod1='Kr' sym_fod2='Na'
C       0.000000000000000      0.000000000000000      0.000000000000000
H       0.629120000000000      0.629120000000000      0.629120000000000
H      -0.629120000000000     -0.629120000000000      0.629120000000000
H       0.629120000000000     -0.629120000000000     -0.629120000000000
H      -0.629120000000000      0.629120000000000     -0.629120000000000
Kr     -0.000000000000372     -0.000000000000185      0.000000000000241
Kr     -0.411177567979853     -0.411177640683540      0.411177786043485
Kr     -0.411177574653999      0.411177374066928     -0.411177679477731
Kr      0.411177295298934      0.411177768566506      0.411177356590225
Kr      0.411177847335288     -0.411177501949711     -0.411177463156219
Na      0.000000000000062      0.000000000000100      0.000000000000048
Na      0.411177654838306     -0.411177560497322     -0.411177588770599
Na     -0.411177567097859      0.411177646581761     -0.411177584196215
Na      0.411177518128520      0.411177526385031      0.411177604969701
Na     -0.411177605869029     -0.411177612469573      0.411177567997065
